<?xml version="1.0" encoding="utf-8"?>
<!-- Generator: Adobe Illustrator 16.0.0, SVG Export Plug-In . SVG Version: 6.00 Build 0)  -->
<!DOCTYPE svg PUBLIC "-//W3C//DTD SVG 1.1//EN" "http://www.w3.org/Graphics/SVG/1.1/DTD/svg11.dtd">
<svg version="1.1" id="Layer_1" xmlns="http://www.w3.org/2000/svg" xmlns:xlink="http://www.w3.org/1999/xlink" x="0px" y="0px"
	 width="24px" height="48px" viewBox="0 0 24 48" enable-background="new 0 0 24 48" xml:space="preserve">
<g>
	<path fill="#FFFFFF" d="M17.73,16.151l-2.869-2.869c0.432-0.712,0.68-1.546,0.68-2.439C15.541,8.249,13.293,6,10.699,6
		C8.104,6,6,8.104,6,10.699c0,2.594,2.248,4.842,4.843,4.842c0.864,0,1.671-0.233,2.366-0.639l2.885,2.886
		c0.283,0.282,0.742,0.282,1.023,0l0.715-0.716C18.115,16.789,18.014,16.435,17.73,16.151z M7.446,10.699
		c0-1.796,1.457-3.253,3.253-3.253c1.797,0,3.397,1.601,3.397,3.397c0,1.795-1.457,3.251-3.252,3.251S7.446,12.494,7.446,10.699z"/>
</g>
<g>
	<path fill="#383C40" d="M17.73,40.151l-2.869-2.869c0.432-0.712,0.68-1.546,0.68-2.438c0-2.596-2.248-4.844-4.842-4.844
		C8.104,30,6,32.104,6,34.699c0,2.594,2.248,4.842,4.843,4.842c0.864,0,1.671-0.233,2.366-0.639l2.885,2.886
		c0.283,0.282,0.742,0.282,1.023,0l0.715-0.716C18.115,40.789,18.014,40.435,17.73,40.151z M7.446,34.699
		c0-1.797,1.457-3.254,3.253-3.254c1.797,0,3.397,1.602,3.397,3.398c0,1.795-1.457,3.251-3.252,3.251S7.446,36.494,7.446,34.699z"/>
</g>
</svg>
