<?xml version="1.0" encoding="utf-8"?>
<!-- Generator: Adobe Illustrator 20.0.0, SVG Export Plug-In . SVG Version: 6.00 Build 0)  -->
<svg version="1.1" id="Lager_1" xmlns="http://www.w3.org/2000/svg" xmlns:xlink="http://www.w3.org/1999/xlink" x="0px" y="0px"
	 viewBox="0 0 18 30" style="enable-background:new 0 0 18 30;" xml:space="preserve">
<style type="text/css">
	.st0{display:none;fill:#D8338B;}
	.st1{fill:#4C7993;}
</style>
<rect x="-11" class="st0" width="40" height="30"/>
<path class="st1" d="M15.3,9V1.2c0-0.7-0.5-1.2-1.2-1.2s-1.2,0.5-1.2,1.2V9H5.1V1.2C5.1,0.5,4.6,0,3.9,0S2.7,0.5,2.7,1.2V9H0v4.8
	c0,4.4,3.1,8,7.2,8.8V30h3.6v-7.4c4.1-0.8,7.2-4.5,7.2-8.8V9H15.3z"/>
</svg>
