<?xml version="1.0" encoding="utf-8"?>
<!-- Generator: Adobe Illustrator 19.2.0, SVG Export Plug-In . SVG Version: 6.00 Build 0)  -->
<svg version="1.1" id="Lager_1" xmlns="http://www.w3.org/2000/svg" xmlns:xlink="http://www.w3.org/1999/xlink" x="0px" y="0px"
	 viewBox="0 0 35 24.4" style="enable-background:new 0 0 35 24.4;" xml:space="preserve">
<style type="text/css">
	.st0{fill:#6A6B6B;}
</style>
<path class="st0" d="M22.7,0c-1.8,0-3.6,0.4-5.3,1.2l0,0l0,0C15.7,0.4,14,0,12.1,0C5.5,0,0,5.5,0,12.2s5.5,12.2,12.2,12.2
	c1.8,0,3.6-0.4,5.3-1.2l0,0l0,0c1.7,0.8,3.4,1.2,5.3,1.2c6.7,0,12.2-5.5,12.2-12.2S29.5,0,22.7,0z M1.3,12.2c0-6,4.9-10.9,10.9-10.9
	c1.3,0,2.6,0.2,3.8,0.7c-3.4,2.2-5.5,6-5.5,10.2c0,4.1,2.1,7.9,5.5,10.2c-1.2,0.5-2.5,0.7-3.8,0.7C6.2,23.1,1.3,18.2,1.3,12.2z
	 M22.7,23.1c-1.3,0-2.6-0.2-3.8-0.7c3.4-2.2,5.5-6,5.5-10.2c0-4.1-2.1-7.9-5.5-10.2c1.2-0.5,2.5-0.7,3.8-0.7c6,0,10.9,4.9,10.9,10.9
	S28.7,23.1,22.7,23.1z"/>
</svg>
